individual2
…
## # A tibble: 6 x 8
##   Name       Position    Height Weight Class       City    State Highschool
##   <fct>      <chr>        <dbl>  <dbl> <chr>       <chr>   <chr> <chr>     
## 1 Akers, La Wide Recei     72    192 Redshirt S Cedar  Iowa  Washington
## 2 Allen, Ch Tight End       79    240 Redshirt S Nixa    Mo.   Nixa      
## 3 Alt, Gerry Offensive      74    290 Redshirt F Cedar  Iowa  Washington
## 4 Anderson, Tight End       76    250 Redshirt S League Texas Clear Fal
## 5 Assalley, Placekicker     72    191 Redshirt S Naperv Ill.  Central   
## 6 Austin, A Linebacker      71    205 Redshirt S Walnut  Cali Bishop Am

stateCount <- bioClean %>% group_by(State) %>% summarize(count=n())
stateCount[order(-stateCount$count),]

## # A tibble: 25 x 2
##    State  count
##    <chr>  <int>
##  1 Iowa      44
##  2 Ohio      10
##  3 Texas      9
##  4 Calif.     8
##  5 Fla.       8
##  6 Ill.       5
##  7 Mich.      5
##  8 Okla.      4
##  9 Wis.       4
## 10 Ariz.      3
## #  with 15 more rows
…
